e-clock/simulation/qsim/LSD.msim.vcd
$comment
	File created using the following command:
		vcd file LSD.msim.vcd -direction
$end
$date
	Sun Feb 26 19:41:36 2023
$end
$version
	ModelSim Version 10.4
$end
$timescale
	1ps
$end

$scope module sec_vlg_vec_tst $end
$var reg 1 ! clk_1Hz $end
$var reg 1 " K $end
$var reg 1 # RD $end
$var wire 1 $ SC $end
$var wire 1 % SH [3] $end
$var wire 1 & SH [2] $end
$var wire 1 ' SH [1] $end
$var wire 1 ( SH [0] $end
$var wire 1 ) SL [3] $end
$var wire 1 * SL [2] $end
$var wire 1 + SL [1] $end
$var wire 1 , SL [0] $end
$var wire 1 - sampler $end

$scope module i1 $end
$var wire 1 . gnd $end
$var wire 1 / vcc $end
$var wire 1 0 unknown $end
$var tri1 1 1 devclrn $end
$var tri1 1 2 devpor $end
$var tri1 1 3 devoe $end
$var wire 1 4 SC~output_o $end
$var wire 1 5 SL[3]~output_o $end
$var wire 1 6 SL[2]~output_o $end
$var wire 1 7 SL[1]~output_o $end
$var wire 1 8 SL[0]~output_o $end
$var wire 1 9 SH[3]~output_o $end
$var wire 1 : SH[2]~output_o $end
$var wire 1 ; SH[1]~output_o $end
$var wire 1 < SH[0]~output_o $end
$var wire 1 = clk_1Hz~input_o $end
$var wire 1 > clk_1Hz~inputclkctrl_outclk $end
$var wire 1 ? K~input_o $end
$var wire 1 @ inst|10~combout $end
$var wire 1 A RD~input_o $end
$var wire 1 B RD~inputclkctrl_outclk $end
$var wire 1 C inst|6~q $end
$var wire 1 D inst1|47~1_combout $end
$var wire 1 E inst|11~combout $end
$var wire 1 F inst|7~q $end
$var wire 1 G inst|12~0_combout $end
$var wire 1 H inst|12~combout $end
$var wire 1 I inst|8~q $end
$var wire 1 J inst1|10~combout $end
$var wire 1 K inst1|6~q $end
$var wire 1 L inst1|25~0_combout $end
$var wire 1 M inst1|11~combout $end
$var wire 1 N inst1|7~q $end
$var wire 1 O inst1|12~combout $end
$var wire 1 P inst1|8~q $end
$var wire 1 Q inst1|47~0_combout $end
$var wire 1 R inst|25~0_combout $end
$var wire 1 S inst|13~0_combout $end
$var wire 1 T inst|9~q $end
$var wire 1 U inst5~0_combout $end
$upscope $end
$upscope $end
$enddefinitions $end
#0
$dumpvars
0!
0"
1#
1$
0(
0'
0&
0%
0,
0+
0*
0)
x-
0.
1/
x0
11
12
13
14
05
06
07
08
09
0:
0;
0<
0=
0>
0?
1@
1A
1B
0C
0D
0E
0F
1G
0H
0I
0J
0K
0L
0M
0N
0O
0P
0Q
0R
0S
0T
0U
$end
#7500
1!
0-
1=
1>
1C
18
0G
1D
0@
1,
1E
#15000
0!
1-
0=
0>
#22500
1!
0-
1=
1>
1F
0C
08
17
1H
0E
1G
0D
1@
0,
1+
0H
1E
#30000
0!
1-
0=
0>
#37500
1!
0-
1=
1>
1C
18
1R
0G
1D
0@
1,
1H
0E
#45000
0!
1-
0=
0>
#52500
1!
0-
1=
1>
1I
0F
0C
08
07
16
1S
0R
1E
1G
0D
1@
0,
0+
1*
0S
0E
#60000
0!
1-
0=
0>
#67500
1!
0-
1=
1>
1C
18
0G
1D
0@
1,
1E
#75000
0!
1-
0=
0>
#82500
1!
0-
1=
1>
1F
0C
08
17
0H
0E
1G
0D
1@
0,
1+
1H
1E
#90000
0!
1-
0=
0>
#97500
1!
0-
1=
1>
1C
18
1R
0G
1D
0@
1,
1S
0H
0E
#105000
0!
1-
0=
0>
#112500
1!
0-
1=
1>
1T
0I
0F
0C
08
07
06
15
1Q
0S
0R
1G
0D
1@
0,
0+
0*
1)
1S
#120000
0!
1-
0=
0>
#127500
1!
0-
1=
1>
1C
18
0G
1D
0@
1,
0S
1J
#135000
0!
1-
0=
0>
#142500
1!
0-
1=
1>
0T
1K
0C
08
1<
05
0Q
1E
0J
1G
0D
1@
0,
1(
0)
1J
0E
#150000
0!
1-
0=
0>
#157500
1!
0-
1=
1>
1C
18
0G
1D
0@
1,
1E
#165000
0!
1-
0=
0>
#172500
1!
0-
1=
1>
1F
0C
08
17
1H
0E
1G
0D
1@
0,
1+
0H
1E
#180000
0!
1-
0=
0>
#187500
1!
0-
1=
1>
1C
18
1R
0G
1D
0@
1,
1H
0E
#195000
0!
1-
0=
0>
#202500
1!
0-
1=
1>
1I
0F
0C
08
07
16
1S
0R
1E
1G
0D
1@
0,
0+
1*
0S
0E
#210000
0!
1-
0=
0>
#217500
1!
0-
1=
1>
1C
18
0G
1D
0@
1,
1E
#225000
0!
1-
0=
0>
#232500
1!
0-
1=
1>
1F
0C
08
17
0H
0E
1G
0D
1@
0,
1+
1H
1E
#240000
0!
1-
0=
0>
#247500
1!
0-
1=
1>
1C
18
1R
0G
1D
0@
1,
1S
0H
0E
#255000
0!
1-
0=
0>
#262500
1!
0-
1=
1>
1T
0I
0F
0C
08
07
06
15
1Q
1L
0S
0R
1G
0D
1@
0,
0+
0*
1)
1S
1M
0L
0M
#270000
0!
1-
0=
0>
#277500
1!
0-
1=
1>
1C
18
0G
1D
0@
1,
0S
1L
0J
1M
#285000
0!
1-
0=
0>
#292500
1!
0-
1=
1>
0T
1N
0K
0C
08
0<
1;
05
0Q
0L
1E
1O
0M
1J
1G
0D
1@
0,
0(
1'
0)
0J
0O
1M
0E
#300000
0!
1-
0=
0>
#307500
1!
0-
1=
1>
1C
18
0G
1D
0@
1,
1E
#315000
0!
1-
0=
0>
#322500
1!
0-
1=
1>
1F
0C
08
17
1H
0E
1G
0D
1@
0,
1+
0H
1E
#330000
0!
1-
0=
0>
#337500
1!
0-
1=
1>
1C
18
1R
0G
1D
0@
1,
1H
0E
#345000
0!
1-
0=
0>
#352500
1!
0-
1=
1>
1I
0F
0C
08
07
16
1S
0R
1E
1G
0D
1@
0,
0+
1*
0S
0E
#360000
0!
1-
0=
0>
#367500
1!
0-
1=
1>
1C
18
0G
1D
0@
1,
1E
#375000
0!
1-
0=
0>
#382500
1!
0-
1=
1>
1F
0C
08
17
0H
0E
1G
0D
1@
0,
1+
1H
1E
#390000
0!
1-
0=
0>
#397500
1!
0-
1=
1>
1C
18
1R
0G
1D
0@
1,
1S
0H
0E
#405000
0!
1-
0=
0>
#412500
1!
0-
1=
1>
1T
0I
0F
0C
08
07
06
15
1Q
0S
0R
1G
0D
1@
0,
0+
0*
1)
1S
#420000
0!
1-
0=
0>
#427500
1!
0-
1=
1>
1C
18
0G
1D
0@
1,
0S
1J
#435000
0!
1-
0=
0>
#442500
1!
0-
1=
1>
0T
1K
0C
08
1<
05
0Q
1E
0J
1G
0D
1@
0,
1(
0)
1J
0E
#450000
0!
1-
0=
0>
#457500
1!
0-
1=
1>
1C
18
0G
1D
0@
1,
1E
#465000
0!
1-
0=
0>
#472500
1!
0-
1=
1>
1F
0C
08
17
1H
0E
1G
0D
1@
0,
1+
0H
1E
#480000
0!
1-
0=
0>
#487500
1!
0-
1=
1>
1C
18
1R
0G
1D
0@
1,
1H
0E
#495000
0!
1-
0=
0>
#502500
1!
0-
1=
1>
1I
0F
0C
08
07
16
1S
0R
1E
1G
0D
1@
0,
0+
1*
0S
0E
#510000
0!
1-
0=
0>
#517500
1!
0-
1=
1>
1C
18
0G
1D
0@
1,
1E
#525000
0!
1-
0=
0>
#532500
1!
0-
1=
1>
1F
0C
08
17
0H
0E
1G
0D
1@
0,
1+
1H
1E
#540000
0!
1-
0=
0>
#547500
1!
0-
1=
1>
1C
18
1R
0G
1D
0@
1,
1S
0H
0E
#555000
0!
1-
0=
0>
#562500
1!
0-
1=
1>
1T
0I
0F
0C
08
07
06
15
1Q
1L
0S
0R
1G
0D
1@
0,
0+
0*
1)
1S
1O
0M
0L
0O
1M
#570000
0!
1-
0=
0>
#577500
1!
0-
1=
1>
1C
18
0G
1D
0@
1,
0S
1L
0J
1O
0M
#585000
0!
1-
0=
0>
#592500
1!
0-
1=
1>
0T
1P
0N
0K
0C
08
0<
0;
1:
05
0Q
0L
1E
1M
1J
1G
0D
1@
0,
0(
0'
1&
0)
0J
0M
0E
#600000
0!
1-
0=
0>
#607500
1!
0-
1=
1>
1C
18
0G
1D
0@
1,
1E
#615000
0!
1-
0=
0>
#622500
1!
0-
1=
1>
1F
0C
08
17
1H
0E
1G
0D
1@
0,
1+
0H
1E
#630000
0!
1-
0=
0>
#637500
1!
0-
1=
1>
1C
18
1R
0G
1D
0@
1,
1H
0E
#645000
0!
1-
0=
0>
#652500
1!
0-
1=
1>
1I
0F
0C
08
07
16
1S
0R
1E
1G
0D
1@
0,
0+
1*
0S
0E
#660000
0!
1-
0=
0>
#667500
1!
0-
1=
1>
1C
18
0G
1D
0@
1,
1E
#675000
0!
1-
0=
0>
#682500
1!
0-
1=
1>
1F
0C
08
17
0H
0E
1G
0D
1@
0,
1+
1H
1E
#690000
0!
1-
0=
0>
#697500
1!
0-
1=
1>
1C
18
1R
0G
1D
0@
1,
1S
0H
0E
#705000
0!
1-
0=
0>
#712500
1!
0-
1=
1>
1T
0I
0F
0C
08
07
06
15
1Q
0S
0R
1G
0D
1@
0,
0+
0*
1)
1S
#720000
0!
1-
0=
0>
#727500
1!
0-
1=
1>
1C
18
0G
1D
0@
1,
0S
1J
#735000
0!
1-
0=
0>
#742500
1!
0-
1=
1>
0T
1K
0C
08
1<
05
0Q
1E
0J
1G
0D
1@
0,
1(
0)
1J
0E
#750000
0!
1-
0=
0>
#757500
1!
0-
1=
1>
1C
18
0G
1D
0@
1,
1E
#765000
0!
1-
0=
0>
#772500
1!
0-
1=
1>
1F
0C
08
17
1H
0E
1G
0D
1@
0,
1+
0H
1E
#780000
0!
1-
0=
0>
#787500
1!
0-
1=
1>
1C
18
1R
0G
1D
0@
1,
1H
0E
#795000
0!
1-
0=
0>
#802500
1!
0-
1=
1>
1I
0F
0C
08
07
16
1S
0R
1E
1G
0D
1@
0,
0+
1*
0S
0E
#810000
0!
1-
0=
0>
#817500
1!
0-
1=
1>
1C
18
0G
1D
0@
1,
1E
#825000
0!
1-
0=
0>
#832500
1!
0-
1=
1>
1F
0C
08
17
0H
0E
1G
0D
1@
0,
1+
1H
1E
#840000
0!
1-
0=
0>
#847500
1!
0-
1=
1>
1C
18
1R
0G
1D
0@
1,
1S
0H
0E
#855000
0!
1-
0=
0>
#862500
1!
0-
1=
1>
1T
0I
0F
0C
08
07
06
15
1Q
1L
0S
0R
1G
0D
1@
0,
0+
0*
1)
1S
1M
0L
0M
#870000
0!
1-
0=
0>
#877500
1!
0-
1=
1>
1C
18
1U
0Q
0G
1D
0@
1,
04
0O
0J
0S
0$
#885000
0!
1-
0=
0>
#892500
1!
0-
1=
1>
0T
0P
0K
0C
08
0<
0:
05
0U
1E
1G
0D
0,
0(
0&
0)
14
0E
1@
1$
#900000
0!
1-
0=
0>
#907500
1!
0-
1=
1>
1C
18
0G
1D
0@
1,
1E
#915000
0!
1-
0=
0>
#922500
1!
0-
1=
1>
1F
0C
08
17
1H
0E
1G
0D
1@
0,
1+
0H
1E
#930000
0!
1-
0=
0>
#937500
1!
0-
1=
1>
1C
18
1R
0G
1D
0@
1,
1H
0E
#945000
0!
1-
0=
0>
#952500
1!
0-
1=
1>
1I
0F
0C
08
07
16
1S
0R
1E
1G
0D
1@
0,
0+
1*
0S
0E
#960000
0!
1-
0=
0>
#967500
1!
0-
1=
1>
1C
18
0G
1D
0@
1,
1E
#975000
0!
1-
0=
0>
#982500
1!
0-
1=
1>
1F
0C
08
17
0H
0E
1G
0D
1@
0,
1+
1H
1E
#990000
0!
1-
0=
0>
#997500
1!
0-
1=
1>
1C
18
1R
0G
1D
0@
1,
1S
0H
0E
